<?xml version="1.0"?>

<robot name="AutoSysLab-SPM">

<material name="black">
  <color rgba="0 0 0 1"/>
</material>

<material name="white">
  <color rgba="1 1 1 0.5"/>
</material>

<material name="green">
  <color rgba="0 1 0 1"/>
</material>

  <link name="base_urdf">
    <visual>
      <geometry>
        <box size="1.47 0.75 0.2"/>
      </geometry>
      <material name="white"/>
    </visual>
  </link>

  <link name="center_bar">
    <visual>
      <geometry>
        <cylinder length="1.02" radius="0.02"/>
      </geometry>
      <origin rpy="0 1.57075 0" xyz="0 0 0"/>
      <material name="black"/>
    </visual>
  </link>

  <joint name="joint_center_bar" type="fixed">
    <parent link="base_urdf"/>
    <child link="center_bar"/>
    <origin xyz="0 0 -0.1"/>
  </joint>

  <link name="front_bar">
    <visual>
      <geometry>
        <cylinder length="0.575" radius="0.02"/>
      </geometry>
      <origin rpy="1.57075 0 0" xyz="0 0 0"/>
      <material name="green"/>
    </visual>
  </link>

  <joint name="joint_front_bar" type="fixed">
    <parent link="center_bar"/>
    <child link="front_bar"/>
    <origin xyz="0.495 0 0"/>
  </joint>

  <link name="wheel_fr">
    <visual>
      <geometry>
        <cylinder length="0.1" radius="0.17"/>
      </geometry>
      <origin rpy="1.57075 0 0" xyz="0 0 0"/>
      <material name="green"/>
    </visual>
  </link>
<!--revolute-->
  <joint name="joint_wheel_fr" type="revolute">
    <parent link="front_bar"/>
    <child link="wheel_fr"/>
    <origin xyz="0 -0.2875 0"/>
    <axis xyz="0 0 1"/>
    <limit effort="100" lower="-0.5" upper="0.5" velocity="10"/>
  </joint>

  <link name="wheel_fl">
    <visual>
      <geometry>
        <cylinder length="0.1" radius="0.17"/>
      </geometry>
      <origin rpy="1.57075 0 0" xyz="0 0 0"/>
      <material name="green"/>
    </visual>
  </link>
<!--revolute-->
  <joint name="joint_wheel_fl" type="revolute">
    <parent link="front_bar"/>
    <child link="wheel_fl"/>
    <origin xyz="0 0.2875 0"/>
    <axis xyz="0 0 1"/>
    <limit effort="100" lower="-0.5" upper="0.5" velocity="10"/>
  </joint>

  <link name="rear_bar">
    <visual>
      <geometry>
        <cylinder length="0.575" radius="0.02"/>
      </geometry>
      <origin rpy="1.57075 0 0" xyz="0 0 0"/>
      <material name="black"/>
    </visual>
  </link>

  <joint name="joint_rear_bar" type="fixed">
    <parent link="center_bar"/>
    <child link="rear_bar"/>
    <origin xyz="-0.525 0 0"/>
  </joint>

  <link name="wheel_rr">
    <visual>
      <geometry>
        <cylinder length="0.1" radius="0.17"/>
      </geometry>
      <origin rpy="1.57075 0 0" xyz="0 0 0"/>
      <material name="black"/>
    </visual>
  </link>
<!--continuous-->
  <joint name="joint_wheel_rr" type="continuous">
    <parent link="rear_bar"/>
    <child link="wheel_rr"/>
    <origin xyz="0 -0.2875 0"/>
    <axis xyz="0 1 0"/>
  </joint>

  <link name="wheel_rl">
    <visual>
      <geometry>
        <cylinder length="0.1" radius="0.17"/>
      </geometry>
      <origin rpy="1.57075 0 0" xyz="0 0 0"/>
      <material name="black"/>
    </visual>
  </link>
<!--continuous-->
  <joint name="joint_wheel_rl" type="continuous">
    <parent link="rear_bar"/>
    <child link="wheel_rl"/>
    <origin xyz="0 0.2875 0"/>
    <axis xyz="0 1 0"/>
  </joint>

</robot>
